-------------------------------------------------------------------------------
Test set: testTable
-------------------------------------------------------------------------------
Tests run: 1, Failures: 1, Errors: 0, Skipped: 0, Time elapsed: 0.003 sec <<< FAILURE!
testTable.testRowX2ByX()  Time elapsed: 0.002 sec  <<< FAILURE!
java.lang.ArrayIndexOutOfBoundsException: Index 3 out of bounds for length 3
	at Table.setRowCol(Table.java:40)
	at testTable.testRowX2ByX(testTable.java:54)

